…
## Review
Now that you have been introduced to `ggplot`, let's practice a few more plot types. Remember that plots are built in layers: **plot= data + geom_ + aesthetics**. We have to specify each of these in order for a plot to be produced. If you get stuck, it is often helpful to stop and make a quick sketch of what you want or expect to see on a piece of scratch paper.  

Let's review using the `penguins` data. First, get an idea of the structure: Are the data tidy? Are there NA's? Are the variables discrete, categorical, or continuous?

```r
penguins
```

```
## # A tibble: 344 × 8
##    species island    bill_length_mm bill_depth_mm flipper_length_mm body_mass_g
##    <fct>   <fct>              <dbl>         <dbl>             <int>       <int>
##  1 Adelie  Torgersen           39.1          18.7               181        3750
##  2 Adelie  Torgersen           39.5          17.4               186        3800
##  3 Adelie  Torgersen           40.3          18                 195        3250
##  4 Adelie  Torgersen           NA            NA                  NA          NA
##  5 Adelie  Torgersen           36.7          19.3               193        3450
##  6 Adelie  Torgersen           39.3          20.6               190        3650
##  7 Adelie  Torgersen           38.9          17.8               181        3625
##  8 Adelie  Torgersen           39.2          19.6               195        4675
##  9 Adelie  Torgersen           34.1          18.1               193        3475
## 10 Adelie  Torgersen           42            20.2               190        4250
## # … with 334 more rows, and 2 more variables: sex <fct>, year <int>
```
…
## Box Plots
For the next series of examples, we will use the `homerange` data.  **Database of vertebrate home range sizes.**   

Reference: Tamburello N, Cote IM, Dulvy NK (2015) Energy and the scaling of animal space use. The American Naturalist 186(2):196-211. http://dx.doi.org/10.1086/682070.  
Data: http://datadryad.org/resource/doi:10.5061/dryad.q5j65/1  


```r
homerange <- read_csv(here("lab9", "data", "Tamburelloetal_HomeRangeDatabase.csv"))
homerange
```

```
## # A tibble: 569 × 24
##    taxon        common.name class order family genus species primarymethod N    
##    <chr>        <chr>       <chr> <chr> <chr>  <chr> <chr>   <chr>         <chr>
##  1 lake fishes  american e… acti… angu… angui… angu… rostra… telemetry     16   
##  2 river fishes blacktail … acti… cypr… catos… moxo… poecil… mark-recaptu… <NA> 
##  3 river fishes central st… acti… cypr… cypri… camp… anomal… mark-recaptu… 20   
##  4 river fishes rosyside d… acti… cypr… cypri… clin… fundul… mark-recaptu… 26   
##  5 river fishes longnose d… acti… cypr… cypri… rhin… catara… mark-recaptu… 17   
##  6 river fishes muskellunge acti… esoc… esoci… esox  masqui… telemetry     5    
##  7 marine fish… pollack     acti… gadi… gadid… poll… pollac… telemetry     2    
##  8 marine fish… saithe      acti… gadi… gadid… poll… virens  telemetry     2    
##  9 marine fish… lined surg… acti… perc… acant… acan… lineat… direct obser… <NA> 
## 10 marine fish… orangespin… acti… perc… acant… naso  litura… telemetry     8    
## # … with 559 more rows, and 15 more variables: mean.mass.g <dbl>,
## #   log10.mass <dbl>, alternative.mass.reference <chr>, mean.hra.m2 <dbl>,
## #   log10.hra <dbl>, hra.reference <chr>, realm <chr>, thermoregulation <chr>,
## #   locomotion <chr>, trophic.guild <chr>, dimension <dbl>, preymass <dbl>,
## #   log10.preymass <dbl>, PPMR <dbl>, prey.size.reference <chr>
```
…
